%YAML 1.1
%TAG !u! tag:unity3d.com,2011:
--- !u!114 &11400000
MonoBehaviour:
  m_ObjectHideFlags: 0
  m_CorrespondingSourceObject: {fileID: 0}
  m_PrefabInstance: {fileID: 0}
  m_PrefabAsset: {fileID: 0}
  m_GameObject: {fileID: 0}
  m_Enabled: 1
  m_EditorHideFlags: 0
  m_Script: {fileID: 11500000, guid: fba75738c002cf142816987de006f9b7, type: 3}
  m_Name: ConfigData
  m_EditorClassIdentifier: 
  Sprite: {fileID: 21300000, guid: 8d24f0557070fad4fa356e003352b47d, type: 3}
