%YAML 1.1
%TAG !u! tag:unity3d.com,2011:
--- !u!114 &11400000
MonoBehaviour:
  m_ObjectHideFlags: 0
  m_CorrespondingSourceObject: {fileID: 0}
  m_PrefabInstance: {fileID: 0}
  m_PrefabAsset: {fileID: 0}
  m_GameObject: {fileID: 0}
  m_Enabled: 1
  m_EditorHideFlags: 0
  m_Script: {fileID: 11500000, guid: 468a46d0ae32c3544b7d98094e6448a9, type: 3}
  m_Name: AddressableAssetSettings
  m_EditorClassIdentifier: 
  m_DefaultGroup: 1e8df92d399e2514bba25222e049041a
  m_CachedHash:
    serializedVersion: 2
    Hash: 00000000000000000000000000000000
  m_OptimizeCatalogSize: 0
  m_BuildRemoteCatalog: 1
  m_BundleLocalCatalog: 0
  m_CatalogRequestsTimeout: 0
  m_DisableCatalogUpdateOnStart: 0
  m_IgnoreUnsupportedFilesInBuild: 0
  m_UniqueBundleIds: 0
  m_NonRecursiveBuilding: 1
  m_CCDEnabled: 0
  m_maxConcurrentWebRequests: 500
  m_ContiguousBundles: 1
  m_StripUnityVersionFromBundleBuild: 0
  m_DisableVisibleSubAssetRepresentations: 0
  m_ShaderBundleNaming: 0
  m_ShaderBundleCustomNaming: 
  m_MonoScriptBundleNaming: 0
  m_MonoScriptBundleCustomNaming: 
  m_RemoteCatalogBuildPath:
    m_Id: 8fdd4b3ae45948543bf241d64c347771
  m_RemoteCatalogLoadPath:
    m_Id: 6d7b6e5abfeff9f47b542c005f4c437d
  m_ContentStateBuildPath: 
  m_BuildAddressablesWithPlayerBuild: 0
  m_overridePlayerVersion: 
  m_GroupAssets:
  - {fileID: 11400000, guid: 0493d15939d10e04ba2ce29278dcc2fe, type: 2}
  - {fileID: 11400000, guid: 49c808cbccba3af44b9bbfb2aa92bd09, type: 2}
  m_BuildSettings:
    m_CompileScriptsInVirtualMode: 0
    m_CleanupStreamingAssetsAfterBuilds: 1
    m_LogResourceManagerExceptions: 1
    m_BundleBuildPath: Temp/com.unity.addressables/AssetBundles
  m_ProfileSettings:
    m_Profiles:
    - m_InheritedParent: 
      m_Id: 39979467b6166ca4e8e57bb825649c35
      m_ProfileName: Default
      m_Values:
      - m_Id: 8d92522f5e8d8b24a855d9c4554eff88
        m_Value: '[UnityEditor.EditorUserBuildSettings.activeBuildTarget]'
      - m_Id: 648a48acfbd5adb47b79d51745caa547
        m_Value: '[UnityEngine.AddressableAssets.Addressables.BuildPath]/[BuildTarget]'
      - m_Id: b9ae6df2c4c349f4b9f7f6c2394db6d2
        m_Value: '{UnityEngine.AddressableAssets.Addressables.RuntimePath}/[BuildTarget]'
      - m_Id: 8fdd4b3ae45948543bf241d64c347771
        m_Value: C:\xampp\htdocs\[BuildTarget]
      - m_Id: 6d7b6e5abfeff9f47b542c005f4c437d
        m_Value: https://drive.google.com/drive/folders/1V-LCwMub6Sp5uxiPbJCNemWyTgaTzsmF?usp=sharing/[BuildTarget]
    - m_InheritedParent: 
      m_Id: b144f9feeaf6b7f41b0990d3fe1c4258
      m_ProfileName: Remote
      m_Values:
      - m_Id: 8d92522f5e8d8b24a855d9c4554eff88
        m_Value: '[UnityEditor.EditorUserBuildSettings.activeBuildTarget]'
      - m_Id: 648a48acfbd5adb47b79d51745caa547
        m_Value: '[UnityEngine.AddressableAssets.Addressables.BuildPath]/[BuildTarget]'
      - m_Id: b9ae6df2c4c349f4b9f7f6c2394db6d2
        m_Value: '{UnityEngine.AddressableAssets.Addressables.RuntimePath}/[BuildTarget]'
      - m_Id: 8fdd4b3ae45948543bf241d64c347771
        m_Value: C:\xampp\htdocs\[BuildTarget]
      - m_Id: 6d7b6e5abfeff9f47b542c005f4c437d
        m_Value: https://addressables-demo-space.sgp1.digitaloceanspaces.com/Demo/[BuildTarget]
    - m_InheritedParent: 
      m_Id: ba68eb1897a0e00408d90baa0c2ab888
      m_ProfileName: xampp
      m_Values:
      - m_Id: 8d92522f5e8d8b24a855d9c4554eff88
        m_Value: '[UnityEditor.EditorUserBuildSettings.activeBuildTarget]'
      - m_Id: 648a48acfbd5adb47b79d51745caa547
        m_Value: '[UnityEngine.AddressableAssets.Addressables.BuildPath]/[BuildTarget]'
      - m_Id: b9ae6df2c4c349f4b9f7f6c2394db6d2
        m_Value: '{UnityEngine.AddressableAssets.Addressables.RuntimePath}/[BuildTarget]'
      - m_Id: 8fdd4b3ae45948543bf241d64c347771
        m_Value: C:\xampp\htdocs\[BuildTarget]
      - m_Id: 6d7b6e5abfeff9f47b542c005f4c437d
        m_Value: http://localhost/[BuildTarget]
    - m_InheritedParent: 
      m_Id: 441275814bffe1541b556e54e2b0943a
      m_ProfileName: RemoteGoogle
      m_Values:
      - m_Id: 8d92522f5e8d8b24a855d9c4554eff88
        m_Value: '[UnityEditor.EditorUserBuildSettings.activeBuildTarget]'
      - m_Id: 648a48acfbd5adb47b79d51745caa547
        m_Value: '[UnityEngine.AddressableAssets.Addressables.BuildPath]/[BuildTarget]'
      - m_Id: b9ae6df2c4c349f4b9f7f6c2394db6d2
        m_Value: '{UnityEngine.AddressableAssets.Addressables.RuntimePath}/[BuildTarget]'
      - m_Id: 8fdd4b3ae45948543bf241d64c347771
        m_Value: C:\xampp\htdocs\[BuildTarget]
      - m_Id: 6d7b6e5abfeff9f47b542c005f4c437d
        m_Value: gs://addressable-demo-space/[BuildTarget]
    m_ProfileEntryNames:
    - m_Id: 8d92522f5e8d8b24a855d9c4554eff88
      m_Name: BuildTarget
      m_InlineUsage: 0
    - m_Id: 648a48acfbd5adb47b79d51745caa547
      m_Name: Local.BuildPath
      m_InlineUsage: 0
    - m_Id: b9ae6df2c4c349f4b9f7f6c2394db6d2
      m_Name: Local.LoadPath
      m_InlineUsage: 0
    - m_Id: 8fdd4b3ae45948543bf241d64c347771
      m_Name: Remote.BuildPath
      m_InlineUsage: 0
    - m_Id: 6d7b6e5abfeff9f47b542c005f4c437d
      m_Name: Remote.LoadPath
      m_InlineUsage: 0
    m_ProfileVersion: 1
  m_LabelTable:
    m_LabelNames:
    - default
  m_SchemaTemplates: []
  m_GroupTemplateObjects:
  - {fileID: 11400000, guid: 6aeb9361ee1eeba45bce3fe13c0404ba, type: 2}
  m_InitializationObjects: []
  m_CertificateHandlerType:
    m_AssemblyName: 
    m_ClassName: 
  m_ActivePlayerDataBuilderIndex: 3
  m_DataBuilders:
  - {fileID: 11400000, guid: aa65c2e641a03184da638876543f64b6, type: 2}
  - {fileID: 11400000, guid: 6993a71d7b4194f478859d05ee9dcada, type: 2}
  - {fileID: 11400000, guid: ad6c51f0aef6d8447a1b811df1fe69bd, type: 2}
  - {fileID: 11400000, guid: 1bc90fdc0336c1149b8171a219112001, type: 2}
  m_ActiveProfileId: b144f9feeaf6b7f41b0990d3fe1c4258
  m_HostingServicesManager:
    m_HostingServiceInfos: []
    m_Settings: {fileID: 11400000}
    m_NextInstanceId: 1
    m_RegisteredServiceTypeRefs:
    - UnityEditor.AddressableAssets.HostingServices.HttpHostingService, Unity.Addressables.Editor
